problem4/wave.vcd
$date
	Sat Feb 03 01:19:30 2024
$end
$version
	Icarus Verilog
$end
$timescale
	1s
$end
$scope module problem4_tb $end
$scope module DUT $end
$var wire 1 ! i_clk $end
$var wire 1 " i_rst $end
$var wire 16 # w_0 [15:0] $end
$var reg 16 $ o_p [15:0] $end
$var reg 16 % r_0 [15:0] $end
$upscope $end
$upscope $end
$enddefinitions $end
$comment Show the parameter values. $end
$dumpall
$end
#0
$dumpvars
b0 %
bx $
bx #
1"
0!
$end
#1
b1 #
b0 $
1!
#2
0!
#3
1!
#4
0!
#5
1!
#6
0!
#7
1!
#8
0!
#9
1!
#10
0!
0"
#11
b10 #
b1 $
1!
#12
0!
#13
b11 #
b10 $
1!
#14
0!
#15
b100 #
b11 $
1!
#16
0!
#17
b101 #
b100 $
1!
#18
0!
#19
b110 #
b101 $
1!
#20
0!
#21
b111 #
b110 $
1!
#22
0!
#23
b1000 #
b111 $
1!
#24
0!
#25
b1001 #
b1000 $
1!
#26
0!
#27
b1010 #
b1001 $
1!
#28
0!
#29
b1011 #
b1010 $
1!
#30
0!
#31
b1100 #
b1011 $
1!
#32
0!
#33
b1101 #
b1100 $
1!
#34
0!
#35
b1110 #
b1101 $
1!
#36
0!
#37
b1111 #
b1110 $
1!
#38
0!
#39
b10000 #
b1111 $
1!
#40
0!
#41
b10001 #
b10000 $
1!
#42
0!
#43
b10010 #
b10001 $
1!
#44
0!
#45
b10011 #
b10010 $
1!
#46
0!
#47
b10100 #
b10011 $
1!
#48
0!
#49
b10101 #
b10100 $
1!
#50
0!
#51
b10110 #
b10101 $
1!
#52
0!
#53
b10111 #
b10110 $
1!
#54
0!
#55
b11000 #
b10111 $
1!
#56
0!
#57
b11001 #
b11000 $
1!
#58
0!
#59
b11010 #
b11001 $
1!
#60
0!
#61
b11011 #
b11010 $
1!
#62
0!
#63
b11100 #
b11011 $
1!
#64
0!
#65
b11101 #
b11100 $
1!
#66
0!
#67
b11110 #
b11101 $
1!
#68
0!
#69
b11111 #
b11110 $
1!
#70
0!
#71
b100000 #
b11111 $
1!
#72
0!
#73
b100001 #
b100000 $
1!
#74
0!
#75
b100010 #
b100001 $
1!
#76
0!
#77
b100011 #
b100010 $
1!
#78
0!
#79
b100100 #
b100011 $
1!
#80
0!
#81
b100101 #
b100100 $
1!
#82
0!
#83
b100110 #
b100101 $
1!
#84
0!
#85
b100111 #
b100110 $
1!
#86
0!
#87
b101000 #
b100111 $
1!
#88
0!
#89
b101001 #
b101000 $
1!
#90
0!
#91
b101010 #
b101001 $
1!
#92
0!
#93
b101011 #
b101010 $
1!
#94
0!
#95
b101100 #
b101011 $
1!
#96
0!
#97
b101101 #
b101100 $
1!
#98
0!
#99
b101110 #
b101101 $
1!
#100
0!
#101
b101111 #
b101110 $
1!
#102
0!
#103
b110000 #
b101111 $
1!
#104
0!
#105
b110001 #
b110000 $
1!
#106
0!
#107
b110010 #
b110001 $
1!
#108
0!
#109
b110011 #
b110010 $
1!
